…
### Scraping Statistics

Use `get_stats()` to retrieve team or individual player statistics from
a particular league:

``` r
# Get team match statistics for Omaha Supernovas in 2024
get_stats(league = "MLV", team = "Omaha", year = 2025, level = "team")
#> # A tibble: 28 × 15
#>     year team  date      opponent result kills assists service_aces blocks   out
#>    <int> <chr> <chr>     <chr>    <chr>  <int>   <int>        <int>  <int> <int>
#>  1  2025 Omaha 01/10/20… vsAtlan… W         60      56            3     13    48
#>  2  2025 Omaha 01/12/20… atGrand… W         55      47            2      4    38
#>  3  2025 Omaha 01/17/20… atVegas… L         51      48            3     14    42
#>  4  2025 Omaha 01/19/20… vsSan D… L         62      54            1      5    46
#>  5  2025 Omaha 01/24/20… atColum… W         38      34            5      9    24
#>  6  2025 Omaha 01/31/20… vsColum… W         32      31            1     13    26
#>  7  2025 Omaha 02/02/20… atOrlan… L         31      31            2      5    23
#>  8  2025 Omaha 02/06/20… atIndy … W         44      43            4     11    35
#>  9  2025 Omaha 02/08/20… atAtlan… W         54      49            0      9    38
#> 10  2025 Omaha 02/16/20… vsSan D… W         42      39            2     10    28
#> # ℹ 18 more rows
#> # ℹ 5 more variables: attack_attempts <int>, hitting_efficiency <dbl>,
#> #   digs <int>, digs_per_set <dbl>, sets_played <int>
…
